…
##### Question 3.

Load the “nycflights13” library. Use an appropriate join to add a column
containing the airline name to the “flights” dataset present in the
library. Be sure to put the carrier code and name in the first two
columns of the result so we can see them. Save the result as “flights2”.

``` r
flights2 <- flights %>% inner_join(airlines, by = c("carrier")) %>%
    select("carrier", "carrier_name" = "name", everything())
flights2
```

    ## # A tibble: 336,776 × 20
    ##    carrier carrier_n…¹  year month   day dep_t…² sched…³ dep_d…⁴ arr_t…⁵ sched…⁶
    ##    <chr>   <chr>       <int> <int> <int>   <int>   <int>   <dbl>   <int>   <int>
    ##  1 UA      United Air…  2013     1     1     517     515       2     830     819
    ##  2 UA      United Air…  2013     1     1     533     529       4     850     830
    ##  3 AA      American A…  2013     1     1     542     540       2     923     850
    ##  4 B6      JetBlue Ai…  2013     1     1     544     545      -1    1004    1022
    ##  5 DL      Delta Air …  2013     1     1     554     600      -6     812     837
    ##  6 UA      United Air…  2013     1     1     554     558      -4     740     728
    ##  7 B6      JetBlue Ai…  2013     1     1     555     600      -5     913     854
    ##  8 EV      ExpressJet…  2013     1     1     557     600      -3     709     723
    ##  9 B6      JetBlue Ai…  2013     1     1     557     600      -3     838     846
    ## 10 AA      American A…  2013     1     1     558     600      -2     753     745
    ## # … with 336,766 more rows, 10 more variables: arr_delay <dbl>, flight <int>,
    ## #   tailnum <chr>, origin <chr>, dest <chr>, air_time <dbl>, distance <dbl>,
    ## #   hour <dbl>, minute <dbl>, time_hour <dttm>, and abbreviated variable names
    ## #   ¹​carrier_name, ²​dep_time, ³​sched_dep_time, ⁴​dep_delay, ⁵​arr_time,
    ## #   ⁶​sched_arr_time
    ## # ℹ Use `print(n = ...)` to see more rows, and `colnames()` to see all variable names

##### Question 4.

Use an appropriate join to add the airport name to the “flights2”
dataset you got above. The codes and names of the airports are in the
“airports” dataset of the “nycflights13” package. Put the carrier and
carrier name first followed by the destination and destination name,
then everything else.

``` r
flights2 %>% inner_join(airports, by = c("dest" = "faa")) %>%
    select("carrier", "carrier_name", "dest", "dest_name"= "name", everything())
```

    ## # A tibble: 329,174 × 27
    ##    carrier carrier_name  dest  dest_…¹  year month   day dep_t…² sched…³ dep_d…⁴
    ##    <chr>   <chr>         <chr> <chr>   <int> <int> <int>   <int>   <int>   <dbl>
    ##  1 UA      United Air L… IAH   George…  2013     1     1     517     515       2
    ##  2 UA      United Air L… IAH   George…  2013     1     1     533     529       4
    ##  3 AA      American Air… MIA   Miami …  2013     1     1     542     540       2
    ##  4 DL      Delta Air Li… ATL   Hartsf…  2013     1     1     554     600      -6
    ##  5 UA      United Air L… ORD   Chicag…  2013     1     1     554     558      -4
    ##  6 B6      JetBlue Airw… FLL   Fort L…  2013     1     1     555     600      -5
    ##  7 EV      ExpressJet A… IAD   Washin…  2013     1     1     557     600      -3
    ##  8 B6      JetBlue Airw… MCO   Orland…  2013     1     1     557     600      -3
    ##  9 AA      American Air… ORD   Chicag…  2013     1     1     558     600      -2
    ## 10 B6      JetBlue Airw… PBI   Palm B…  2013     1     1     558     600      -2
    ## # … with 329,164 more rows, 17 more variables: arr_time <int>,
    ## #   sched_arr_time <int>, arr_delay <dbl>, flight <int>, tailnum <chr>,
    ## #   origin <chr>, air_time <dbl>, distance <dbl>, hour <dbl>, minute <dbl>,
    ## #   time_hour <dttm>, lat <dbl>, lon <dbl>, alt <dbl>, tz <dbl>, dst <chr>,
    ## #   tzone <chr>, and abbreviated variable names ¹​dest_name, ²​dep_time,
    ## #   ³​sched_dep_time, ⁴​dep_delay
    ## # ℹ Use `print(n = ...)` to see more rows, and `colnames()` to see all variable names
…
