…
The following built-in datasets are not tidy. For each one, describe why
it is not tidy, write out what the first five entries would look like
once it is in a tidy format, and then tidy the dataset

a.relig_income b.billboard c.us_rent_income

``` r
# relig_income
# a row should only contain one observation

relig_income %>%
    pivot_longer(!religion, names_to = "income", values_to = "count")
```

    ## # A tibble: 180 × 3
    ##    religion income             count
    ##    <chr>    <chr>              <dbl>
    ##  1 Agnostic <$10k                 27
    ##  2 Agnostic $10-20k               34
    ##  3 Agnostic $20-30k               60
    ##  4 Agnostic $30-40k               81
    ##  5 Agnostic $40-50k               76
    ##  6 Agnostic $50-75k              137
    ##  7 Agnostic $75-100k             122
    ##  8 Agnostic $100-150k            109
    ##  9 Agnostic >150k                 84
    ## 10 Agnostic Don't know/refused    96
    ## # … with 170 more rows
    ## # ℹ Use `print(n = ...)` to see more rows
``` r
# billboard
# a row should only contain one observation

billboard %>%
  pivot_longer(
    cols = starts_with("wk"),
    names_to = "week",
    names_prefix = "wk",
    values_to = "rank",
    values_drop_na = TRUE
  )
```

    ## # A tibble: 5,307 × 5
    ##    artist  track                   date.entered week   rank
    ##    <chr>   <chr>                   <date>       <chr> <dbl>
    ##  1 2 Pac   Baby Don't Cry (Keep... 2000-02-26   1        87
    ##  2 2 Pac   Baby Don't Cry (Keep... 2000-02-26   2        82
    ##  3 2 Pac   Baby Don't Cry (Keep... 2000-02-26   3        72
    ##  4 2 Pac   Baby Don't Cry (Keep... 2000-02-26   4        77
    ##  5 2 Pac   Baby Don't Cry (Keep... 2000-02-26   5        87
    ##  6 2 Pac   Baby Don't Cry (Keep... 2000-02-26   6        94
    ##  7 2 Pac   Baby Don't Cry (Keep... 2000-02-26   7        99
    ##  8 2Ge+her The Hardest Part Of ... 2000-09-02   1        91
    ##  9 2Ge+her The Hardest Part Of ... 2000-09-02   2        87
    ## 10 2Ge+her The Hardest Part Of ... 2000-09-02   3        92
    ## # … with 5,297 more rows
    ## # ℹ Use `print(n = ...)` to see more rows

``` r
# us_rent_income

us_rent_income %>%
  pivot_wider(
    names_from = variable,
    names_glue = "{variable}_{.value}",
    values_from = c(estimate, moe)
  )
```

    ## # A tibble: 52 × 6
    ##    GEOID NAME                 income_estimate rent_estimate income_moe rent_moe
    ##    <chr> <chr>                          <dbl>         <dbl>      <dbl>    <dbl>
    ##  1 01    Alabama                        24476           747        136        3
    ##  2 02    Alaska                         32940          1200        508       13
    ##  3 04    Arizona                        27517           972        148        4
    ##  4 05    Arkansas                       23789           709        165        5
    ##  5 06    California                     29454          1358        109        3
    ##  6 08    Colorado                       32401          1125        109        5
    ##  7 09    Connecticut                    35326          1123        195        5
    ##  8 10    Delaware                       31560          1076        247       10
    ##  9 11    District of Columbia           43198          1424        681       17
    ## 10 12    Florida                        25952          1077         70        3
    ## # … with 42 more rows
    ## # ℹ Use `print(n = ...)` to see more rows
…
monkeymem %>% 
  pivot_longer(
    cols = starts_with("Week"),
    names_to = "Week",
    names_prefix = "Week",
    values_to = "Accuracy",
  )
```

    ## # A tibble: 90 × 4
    ##    Monkey Treatment Week  Accuracy
    ##    <chr>  <fct>     <chr>    <dbl>
    ##  1 Spank  Control   2           95
    ##  2 Spank  Control   4           75
    ##  3 Spank  Control   8           80
    ##  4 Spank  Control   12          65
    ##  5 Spank  Control   16          70
    ##  6 Chim   Control   2           85
    ##  7 Chim   Control   4           75
    ##  8 Chim   Control   8           55
    ##  9 Chim   Control   12          75
    ## 10 Chim   Control   16          85
    ## # … with 80 more rows
    ## # ℹ Use `print(n = ...)` to see more rows
##### Question 4.

4.  As explained in the lecture video load and tidy the built in
    world_bank_pop data frame

``` r
world_bank_pop %>% 
  pivot_longer(
    cols = starts_with("20"),
    names_to = "Year",
    values_to = "Population",
  )
```

    ## # A tibble: 19,008 × 4
    ##    country indicator   Year  Population
    ##    <chr>   <chr>       <chr>      <dbl>
    ##  1 ABW     SP.URB.TOTL 2000       42444
    ##  2 ABW     SP.URB.TOTL 2001       43048
    ##  3 ABW     SP.URB.TOTL 2002       43670
    ##  4 ABW     SP.URB.TOTL 2003       44246
    ##  5 ABW     SP.URB.TOTL 2004       44669
    ##  6 ABW     SP.URB.TOTL 2005       44889
    ##  7 ABW     SP.URB.TOTL 2006       44881
    ##  8 ABW     SP.URB.TOTL 2007       44686
    ##  9 ABW     SP.URB.TOTL 2008       44375
    ## 10 ABW     SP.URB.TOTL 2009       44052
    ## # … with 18,998 more rows
    ## # ℹ Use `print(n = ...)` to see more rows
…
``` r
weather %>% 
  pivot_longer(
    cols = starts_with("d"),
    names_to = "Day",
    values_to = "Temp",
  )  %>% 
  pivot_wider(
    names_from = element,
    values_from = c(Temp)
  )
```

    ## # A tibble: 341 × 6
    ##    id       year month Day    tmax  tmin
    ##    <chr>   <dbl> <dbl> <chr> <dbl> <dbl>
    ##  1 MX17004  2010     1 d1       NA    NA
    ##  2 MX17004  2010     1 d2       NA    NA
    ##  3 MX17004  2010     1 d3       NA    NA
    ##  4 MX17004  2010     1 d4       NA    NA
    ##  5 MX17004  2010     1 d5       NA    NA
    ##  6 MX17004  2010     1 d6       NA    NA
    ##  7 MX17004  2010     1 d7       NA    NA
    ##  8 MX17004  2010     1 d8       NA    NA
    ##  9 MX17004  2010     1 d9       NA    NA
    ## 10 MX17004  2010     1 d10      NA    NA
    ## # … with 331 more rows
    ## # ℹ Use `print(n = ...)` to see more rows
##### Question 7.

Load the built in “anscombe” data frame and use “pivot_longer()” to
separate all the x and y columns and categorize them into 4 sets.

``` r
anscombe %>%
  pivot_longer(
    everything(),
    names_to = c(".value", "set"),
    names_pattern = "(.)(.)"
  )
```

    ## # A tibble: 44 × 3
    ##    set       x     y
    ##    <chr> <dbl> <dbl>
    ##  1 1        10  8.04
    ##  2 2        10  9.14
    ##  3 3        10  7.46
    ##  4 4         8  6.58
    ##  5 1         8  6.95
    ##  6 2         8  8.14
    ##  7 3         8  6.77
    ##  8 4         8  5.76
    ##  9 1        13  7.58
    ## 10 2        13  8.74
    ## # … with 34 more rows
    ## # ℹ Use `print(n = ...)` to see more rows
