…
`select(flights, contains("TIME", ignore.case=FALSE))`

CASE INSENSIBLE, USE ignore.case=FALSE

#### Question 4.

Use select to show only the columns of hflights that have the word time
or delay in the variable name or have the carrier id.

``` r
select(flights, contains("TIME") | contains("DELAY") | contains ('CARRIER'))
```

    ## # A tibble: 336,776 × 9
    ##    dep_time sched_…¹ arr_t…² sched…³ air_t…⁴ time_hour           dep_d…⁵ arr_d…⁶
    ##       <int>    <int>   <int>   <int>   <dbl> <dttm>                <dbl>   <dbl>
    ##  1      517      515     830     819     227 2013-01-01 05:00:00       2      11
    ##  2      533      529     850     830     227 2013-01-01 05:00:00       4      20
    ##  3      542      540     923     850     160 2013-01-01 05:00:00       2      33
    ##  4      544      545    1004    1022     183 2013-01-01 05:00:00      -1     -18
    ##  5      554      600     812     837     116 2013-01-01 06:00:00      -6     -25
    ##  6      554      558     740     728     150 2013-01-01 05:00:00      -4      12
    ##  7      555      600     913     854     158 2013-01-01 06:00:00      -5      19
    ##  8      557      600     709     723      53 2013-01-01 06:00:00      -3     -14
    ##  9      557      600     838     846     140 2013-01-01 06:00:00      -3      -8
    ## 10      558      600     753     745     138 2013-01-01 06:00:00      -2       8
    ## # … with 336,766 more rows, 1 more variable: carrier <chr>, and abbreviated
    ## #   variable names ¹​sched_dep_time, ²​arr_time, ³​sched_arr_time, ⁴​air_time,
    ## #   ⁵​dep_delay, ⁶​arr_delay
    ## # ℹ Use `print(n = ...)` to see more rows, and `colnames()` to see all variable names

#### Question 5.

Find all flights from nycflights13 that had an arrival delay of two or
more hours. Put the arrival delay first in your output so you can check
it.

``` r
flights %>%
  filter(arr_delay / 60 >= 2) %>%
  select(arr_delay, everything()) %>%
  arrange(desc(arr_delay))
```

    ## # A tibble: 10,200 × 19
    ##    arr_delay  year month   day dep_time sched_…¹ dep_d…² arr_t…³ sched…⁴ carrier
    ##        <dbl> <int> <int> <int>    <int>    <int>   <dbl>   <int>   <int> <chr>  
    ##  1      1272  2013     1     9      641      900    1301    1242    1530 HA     
    ##  2      1127  2013     6    15     1432     1935    1137    1607    2120 MQ     
    ##  3      1109  2013     1    10     1121     1635    1126    1239    1810 MQ     
    ##  4      1007  2013     9    20     1139     1845    1014    1457    2210 AA     
    ##  5       989  2013     7    22      845     1600    1005    1044    1815 MQ     
    ##  6       931  2013     4    10     1100     1900     960    1342    2211 DL     
    ##  7       915  2013     3    17     2321      810     911     135    1020 DL     
    ##  8       895  2013     7    22     2257      759     898     121    1026 DL     
    ##  9       878  2013    12     5      756     1700     896    1058    2020 AA     
    ## 10       875  2013     5     3     1133     2055     878    1250    2215 MQ     
    ## # … with 10,190 more rows, 9 more variables: flight <int>, tailnum <chr>,
    ## #   origin <chr>, dest <chr>, air_time <dbl>, distance <dbl>, hour <dbl>,
    ## #   minute <dbl>, time_hour <dttm>, and abbreviated variable names
    ## #   ¹​sched_dep_time, ²​dep_delay, ³​arr_time, ⁴​sched_arr_time
    ## # ℹ Use `print(n = ...)` to see more rows, and `colnames()` to see all variable names

#### Question 6.

Find all flights from nycflights13 that were operated by United,
American, or Delta.

``` r
flights %>%
  filter(carrier %in% c('AA','UA','DL'))
```

    ## # A tibble: 139,504 × 19
    ##     year month   day dep_time sched_de…¹ dep_d…² arr_t…³ sched…⁴ arr_d…⁵ carrier
    ##    <int> <int> <int>    <int>      <int>   <dbl>   <int>   <int>   <dbl> <chr>  
    ##  1  2013     1     1      517        515       2     830     819      11 UA     
    ##  2  2013     1     1      533        529       4     850     830      20 UA     
    ##  3  2013     1     1      542        540       2     923     850      33 AA     
    ##  4  2013     1     1      554        600      -6     812     837     -25 DL     
    ##  5  2013     1     1      554        558      -4     740     728      12 UA     
    ##  6  2013     1     1      558        600      -2     753     745       8 AA     
    ##  7  2013     1     1      558        600      -2     924     917       7 UA     
    ##  8  2013     1     1      558        600      -2     923     937     -14 UA     
    ##  9  2013     1     1      559        600      -1     941     910      31 AA     
    ## 10  2013     1     1      559        600      -1     854     902      -8 UA     
    ## # … with 139,494 more rows, 9 more variables: flight <int>, tailnum <chr>,
    ## #   origin <chr>, dest <chr>, air_time <dbl>, distance <dbl>, hour <dbl>,
    ## #   minute <dbl>, time_hour <dttm>, and abbreviated variable names
    ## #   ¹​sched_dep_time, ²​dep_delay, ³​arr_time, ⁴​sched_arr_time, ⁵​arr_delay
    ## # ℹ Use `print(n = ...)` to see more rows, and `colnames()` to see all variable names

#### Question 7.

Find all flights from nycflights13 that arrived more than two hours
late.

``` r
flights %>%
  filter(arr_delay / 60 >= 2) %>%
  select(arr_delay, everything()) %>%
  arrange(desc(arr_delay))
```

    ## # A tibble: 10,200 × 19
    ##    arr_delay  year month   day dep_time sched_…¹ dep_d…² arr_t…³ sched…⁴ carrier
    ##        <dbl> <int> <int> <int>    <int>    <int>   <dbl>   <int>   <int> <chr>  
    ##  1      1272  2013     1     9      641      900    1301    1242    1530 HA     
    ##  2      1127  2013     6    15     1432     1935    1137    1607    2120 MQ     
    ##  3      1109  2013     1    10     1121     1635    1126    1239    1810 MQ     
    ##  4      1007  2013     9    20     1139     1845    1014    1457    2210 AA     
    ##  5       989  2013     7    22      845     1600    1005    1044    1815 MQ     
    ##  6       931  2013     4    10     1100     1900     960    1342    2211 DL     
    ##  7       915  2013     3    17     2321      810     911     135    1020 DL     
    ##  8       895  2013     7    22     2257      759     898     121    1026 DL     
    ##  9       878  2013    12     5      756     1700     896    1058    2020 AA     
    ## 10       875  2013     5     3     1133     2055     878    1250    2215 MQ     
    ## # … with 10,190 more rows, 9 more variables: flight <int>, tailnum <chr>,
    ## #   origin <chr>, dest <chr>, air_time <dbl>, distance <dbl>, hour <dbl>,
    ## #   minute <dbl>, time_hour <dttm>, and abbreviated variable names
    ## #   ¹​sched_dep_time, ²​dep_delay, ³​arr_time, ⁴​sched_arr_time
    ## # ℹ Use `print(n = ...)` to see more rows, and `colnames()` to see all variable names

#### Question 8.

Find all flights from nycflights13 that had a departure delay by at
least an hour

``` r
flights %>%
  filter(dep_delay / 60 >= 1) %>%
  select(dep_delay, everything()) %>%
  arrange(desc(dep_delay))
```

    ## # A tibble: 27,059 × 19
    ##    dep_delay  year month   day dep_time sched_…¹ arr_t…² sched…³ arr_d…⁴ carrier
    ##        <dbl> <int> <int> <int>    <int>    <int>   <int>   <int>   <dbl> <chr>  
    ##  1      1301  2013     1     9      641      900    1242    1530    1272 HA     
    ##  2      1137  2013     6    15     1432     1935    1607    2120    1127 MQ     
    ##  3      1126  2013     1    10     1121     1635    1239    1810    1109 MQ     
    ##  4      1014  2013     9    20     1139     1845    1457    2210    1007 AA     
    ##  5      1005  2013     7    22      845     1600    1044    1815     989 MQ     
    ##  6       960  2013     4    10     1100     1900    1342    2211     931 DL     
    ##  7       911  2013     3    17     2321      810     135    1020     915 DL     
    ##  8       899  2013     6    27      959     1900    1236    2226     850 DL     
    ##  9       898  2013     7    22     2257      759     121    1026     895 DL     
    ## 10       896  2013    12     5      756     1700    1058    2020     878 AA     
    ## # … with 27,049 more rows, 9 more variables: flight <int>, tailnum <chr>,
    ## #   origin <chr>, dest <chr>, air_time <dbl>, distance <dbl>, hour <dbl>,
    ## #   minute <dbl>, time_hour <dttm>, and abbreviated variable names
    ## #   ¹​sched_dep_time, ²​arr_time, ³​sched_arr_time, ⁴​arr_delay
    ## # ℹ Use `print(n = ...)` to see more rows, and `colnames()` to see all variable names
…
